{
   "props": {
      "ascent": 800,
      "descent": 200,
      "em": 1000,
      "family": "OpenRGB"
   },
   "input": "./",
   "output": [
      "OpenRGB.ttf"
   ],
   "glyphs": {
      "0xF001": "dependencies/css.gg/icons/svg/bulb.svg",
      "0xF002": "custom-svg/controller.svg",
      "0xF003": "custom-svg/cooler.svg",
      "0xF004": "dependencies/css.gg/icons/svg/data.svg",
      "0xF005": "custom-svg/dram.svg",
      "0xF006": "dependencies/css.gg/icons/svg/drive.svg",
      "0xF007": "dependencies/css.gg/icons/svg/extension.svg",
      "0xF008": "dependencies/css.gg/icons/svg/games.svg",
      "0xF009": "custom-svg/gpu.svg",
      "0xF00A": "dependencies/css.gg/icons/svg/headset.svg",
      "0xF00B": "custom-svg/headsetstand.svg",
      "0xF00C": "dependencies/css.gg/icons/svg/info.svg",
      "0xF00D": "custom-svg/keyboard.svg",
      "0xF00E": "custom-svg/keypad.svg",
      "0xF00F": "custom-svg/ledstrip.svg",
      "0xF010": "custom-svg/mainboard.svg",
      "0xF011": "dependencies/css.gg/icons/svg/mic.svg",
      "0xF012": "dependencies/css.gg/icons/svg/mouse.svg",
      "0xF013": "custom-svg/mousemat.svg",
      "0xF014": "dependencies/css.gg/icons/svg/music-speaker.svg",
      "0xF015": "dependencies/css.gg/icons/svg/options.svg",
      "0xF016": "dependencies/css.gg/icons/svg/server.svg",
      "0xF017": "custom-svg/serial.svg",
      "0xF018": "dependencies/css.gg/icons/svg/terminal.svg",
      "0xF019": "dependencies/css.gg/icons/svg/toolbox.svg",
      "0xF01A": "dependencies/css.gg/icons/svg/unavailable.svg",
      "0xF01B": "dependencies/css.gg/icons/svg/path-trim.svg",
      "0xF01C": "dependencies/css.gg/icons/svg/usb.svg"
   }
}
