<?xml version="1.0" encoding="UTF-8" standalone="no"?>
<!-- Created with Inkscape (http://www.inkscape.org/) -->

<svg
   width="26"
   height="26"
   viewBox="0 0 6.8791668 6.8791668"
   version="1.1"
   id="svg5"
   xml:space="preserve"
   inkscape:export-filename="ledstrip.svg"
   inkscape:export-xdpi="96"
   inkscape:export-ydpi="96"
   sodipodi:docname="headsetstand.svg"
   xmlns:inkscape="http://www.inkscape.org/namespaces/inkscape"
   xmlns:sodipodi="http://sodipodi.sourceforge.net/DTD/sodipodi-0.dtd"
   xmlns="http://www.w3.org/2000/svg"
   xmlns:svg="http://www.w3.org/2000/svg"><sodipodi:namedview
     id="namedview7"
     pagecolor="#ffffff"
     bordercolor="#000000"
     borderopacity="0.25"
     inkscape:showpageshadow="2"
     inkscape:pageopacity="0.0"
     inkscape:pagecheckerboard="0"
     inkscape:deskcolor="#d1d1d1"
     inkscape:document-units="mm"
     showgrid="false" /><defs
     id="defs2" /><g
     inkscape:label="Layer 1"
     inkscape:groupmode="layer"
     id="layer1"
     transform="translate(-95.818476,-112.24157)"><g
       inkscape:label="Layer 1"
       id="layer1-2"
       transform="matrix(0.26359871,0,0,0.26359871,71.360725,83.460372)"><g
         inkscape:label="Layer 1"
         id="layer1-3"
         transform="matrix(0.25909824,0,0,0.25909824,72.264359,80.686042)"><g
           style="fill:none"
           id="g1131"
           transform="matrix(1.8840575,0,0,2.3467644,97.695112,145.64311)"><path
             d="m 2.16907,10.106435 c 0,-0.5545356 0.4495488,-1.0040844 1.0040847,-1.0040844 H 21.24668 c 0.554556,0 1.004085,0.4495488 1.004085,1.0040844 0,0.554536 -0.449529,1.004085 -1.004085,1.004085 H 3.1731547 c -0.5545359,0 -1.0040847,-0.449549 -1.0040847,-1.004085 z"
             fill="currentColor"
             id="path1116"
             style="stroke-width:1.00408" /><path
             d="m 25.985346,-4.7816654 c 0,-0.467562 -0.588054,-0.8466027 -1.313502,-0.8466027 -0.725446,0 -1.3135,0.3790407 -1.3135,0.8466027 V 5.3775771 c 0,0.4675789 0.588054,0.8466037 1.3135,0.8466037 0.725448,0 1.313502,-0.3790248 1.313502,-0.8466037 z"
             fill="currentColor"
             id="path1270"
             style="stroke-width:1.05452" /><path
             d="m 30.32139,-4.7816654 c 0,-0.467562 -0.588054,-0.8466027 -1.313502,-0.8466027 -0.725446,0 -1.3135,0.3790407 -1.3135,0.8466027 V 5.3775771 c 0,0.4675789 0.588054,0.8466037 1.3135,0.8466037 0.725448,0 1.313502,-0.3790248 1.313502,-0.8466037 z"
             fill="currentColor"
             id="path2559"
             style="stroke-width:1.05452" /></g><g
           style="fill:none"
           id="g144"
           transform="matrix(3.4982737,0,0,3.4982737,87.578647,118.37754)"><path
             fill-rule="evenodd"
             clip-rule="evenodd"
             d="M 1,5 C 1,2.79086 2.79086,1 5,1 h 14 c 2.2091,0 4,1.79086 4,4 v 14 c 0,2.2091 -1.7909,4 -4,4 H 5 C 2.79086,23 1,21.2091 1,19 Z M 5,3 h 14 c 1.1046,0 2,0.89543 2,2 v 14 c 0,1.1046 -0.8954,2 -2,2 H 5 C 3.89543,21 3,20.1046 3,19 V 5 C 3,3.89543 3.89543,3 5,3 Z"
             fill="currentColor"
             id="path134" /></g></g><path
         id="rect2407"
         style="fill:#000000;fill-opacity:1;stroke:#000000;stroke-width:0.827;stroke-linejoin:round;stroke-miterlimit:1.8;stroke-dasharray:none"
         d="m 101.24903,116.1547 v 3.48919 h 3.4892 v -3.48919 z" /><path
         id="rect2409"
         style="fill:#000000;fill-opacity:1;stroke:#000000;stroke-width:0.827;stroke-linejoin:round;stroke-miterlimit:1.8;stroke-dasharray:none"
         d="m 109.70376,125.10751 v 3.35794 h 2.0128 v -3.35794 z" /></g></g></svg>
